ElectionProject
…
ElectionData %>% select(contains("State"))

# A tibble: 50 x 2
   State2 State      
   <chr>  <chr>      
 1 AK     Alaska     
 2 AL     Alabama    
 3 AR     Arkansas   
 4 AZ     Arizona    
 5 CA     California 
 6 CO     Colorado   
 7 CT     Connecticut
 8 DE     Delaware   
 9 FL     Florida    
10 GA     Georgia    
# ... with 40 more rows

ElectionData %>% select("State", everything())

# A tibble: 50 x 6
   State       State2 Home.Value PercentDem South DemLead
   <chr>       <chr>       <dbl>      <dbl> <dbl>   <dbl>
 1 Alaska      AK        147385.       41.6     0    -8.5
 2 Alabama     AL         92545.       35.6     1   -17  
 3 Arkansas    AR         82077.       35.7     1   -14.3
 4 Arizona     AZ        140756.       48.1     0    -0.3
 5 California  CA        282808.       66.1     0    18.3
 6 Colorado    CO        158176.       52.7     0    -0.6
 7 Connecticut CT        223063.       57.1     0    18.3
 8 Delaware    DE        152906.       56.0     0    19.3
 9 Florida     FL        137843.       49.4     1     1.1
10 Georgia     GA        112197.       47.3     1    -1.2
# ... with 40 more rows

ElectionData %>% rename_all(tolower)

# A tibble: 50 x 6
   state2 home.value state       percentdem south demlead
   <chr>       <dbl> <chr>            <dbl> <dbl>   <dbl>
 1 AK        147385. Alaska            41.6     0    -8.5
 2 AL         92545. Alabama           35.6     1   -17  
 3 AR         82077. Arkansas          35.7     1   -14.3
 4 AZ        140756. Arizona           48.1     0    -0.3
 5 CA        282808. California        66.1     0    18.3
 6 CO        158176. Colorado          52.7     0    -0.6
 7 CT        223063. Connecticut       57.1     0    18.3
 8 DE        152906. Delaware          56.0     0    19.3
 9 FL        137843. Florida           49.4     1     1.1
10 GA        112197. Georgia           47.3     1    -1.2
# ... with 40 more rows
…
